…
### Let’s make more detailed description:

#### aisles_items:

``` r
aisle_counts =
  instacart %>%
  count(aisle, name = "n_items") %>%
  arrange(desc(n_items))
aisle_counts
```

    ## # A tibble: 134 × 2
    ##    aisle                         n_items
    ##    <chr>                           <int>
    ##  1 fresh vegetables               150609
    ##  2 fresh fruits                   150473
    ##  3 packaged vegetables fruits      78493
    ##  4 yogurt                          55240
    ##  5 packaged cheese                 41699
    ##  6 water seltzer sparkling water   36617
    ##  7 milk                            32644
    ##  8 chips pretzels                  31269
    ##  9 soy lactosefree                 26240
    ## 10 bread                           23635
    ## # ℹ 124 more rows
…
``` r
zori <-
  zori_long %>%
  left_join(zip_borough, by = "zip_code",relationship = "many-to-many") %>%
  drop_na(borough)
zori
```

    ## # A tibble: 10,677 × 4
    ##    zip_code date        rent borough
    ##    <chr>    <date>     <dbl> <chr>  
    ##  1 11368    2024-07-31 2322. Queens 
    ##  2 11368    2024-08-31 2282. Queens 
    ##  3 11385    2016-05-31 2266. Queens 
    ##  4 11385    2016-06-30 2292. Queens 
    ##  5 11385    2016-07-31 2321. Queens 
    ##  6 11385    2016-08-31 2343. Queens 
    ##  7 11385    2016-09-30 2337. Queens 
    ##  8 11385    2016-10-31 2345. Queens 
    ##  9 11385    2016-11-30 2320. Queens 
    ## 10 11385    2016-12-31 2326. Queens 
    ## # ℹ 10,667 more rows
…
  filter(age >= 21) %>%
  drop_na() %>%
  mutate(
    sex = if (is.numeric(sex))
            factor(sex, levels = c(1, 2), labels = c("Male", "Female"))
          else factor(sex),
    education = if (is.numeric(education))
                  factor(education, levels = c(1, 2, 3),
                         labels = c("Less than HS", "HS equivalent", "More than HS"),
                         ordered = TRUE)
                else factor(education, ordered = TRUE))
covar_filter
```

    ## # A tibble: 228 × 5
    ##     seqn sex      age   bmi education    
    ##    <dbl> <fct>  <dbl> <dbl> <ord>        
    ##  1 62161 Male      22  23.3 HS equivalent
    ##  2 62164 Female    44  23.2 More than HS 
    ##  3 62169 Male      21  20.1 HS equivalent
    ##  4 62174 Male      80  33.9 More than HS 
    ##  5 62177 Male      51  20.1 HS equivalent
    ##  6 62178 Male      80  28.5 HS equivalent
    ##  7 62180 Male      35  27.9 More than HS 
    ##  8 62184 Male      26  22.1 HS equivalent
    ##  9 62189 Female    30  22.4 More than HS 
    ## 10 62199 Male      57  28   More than HS 
    ## # ℹ 218 more rows

If we need combined dataset:

``` r
combined_data =
  covar_filter %>%
  inner_join(accel, by = "seqn", relationship = "one-to-one")
combined_data
```

    ## # A tibble: 228 × 1,445
    ##     seqn sex      age   bmi education     min1   min2   min3  min4   min5   min6
    ##    <dbl> <fct>  <dbl> <dbl> <ord>        <dbl>  <dbl>  <dbl> <dbl>  <dbl>  <dbl>
    ##  1 62161 Male      22  23.3 HS equivale… 1.11  3.12   1.47   0.938 1.60   0.145 
    ##  2 62164 Female    44  23.2 More than HS 1.92  1.67   2.38   0.935 2.59   5.22  
    ##  3 62169 Male      21  20.1 HS equivale… 5.85  5.18   4.76   6.48  6.85   7.24  
    ##  4 62174 Male      80  33.9 More than HS 5.42  3.48   3.72   3.81  6.85   4.45  
    ##  5 62177 Male      51  20.1 HS equivale… 6.14  8.06   9.99   6.60  4.57   2.78  
    ##  6 62178 Male      80  28.5 HS equivale… 0.167 0.429  0.131  1.20  0.0796 0.0487
    ##  7 62180 Male      35  27.9 More than HS 0.039 0      0      0     0.369  0.265 
    ##  8 62184 Male      26  22.1 HS equivale… 1.55  2.81   3.86   4.76  6.10   7.61  
    ##  9 62189 Female    30  22.4 More than HS 2.81  0.195  0.163  0     0.144  0.180 
    ## 10 62199 Male      57  28   More than HS 0.031 0.0359 0.0387 0.079 0.109  0.262 
    ## # ℹ 218 more rows
    ## # ℹ 1,434 more variables: min7 <dbl>, min8 <dbl>, min9 <dbl>, min10 <dbl>,
    ## #   min11 <dbl>, min12 <dbl>, min13 <dbl>, min14 <dbl>, min15 <dbl>,
    ## #   min16 <dbl>, min17 <dbl>, min18 <dbl>, min19 <dbl>, min20 <dbl>,
    ## #   min21 <dbl>, min22 <dbl>, min23 <dbl>, min24 <dbl>, min25 <dbl>,
    ## #   min26 <dbl>, min27 <dbl>, min28 <dbl>, min29 <dbl>, min30 <dbl>,
    ## #   min31 <dbl>, min32 <dbl>, min33 <dbl>, min34 <dbl>, min35 <dbl>, …
…
total_activ = 
  accel %>%
  dplyr::mutate(total_activity = rowSums(dplyr::select(., dplyr::all_of(minute_cols)),
                                         na.rm = TRUE)) %>%
  dplyr::select(seqn, total_activity)


final_data =
  covar_filter %>%
  inner_join(total_activ, by = "seqn", relationship = "one-to-one")
final_data
```

    ## # A tibble: 228 × 6
    ##     seqn sex      age   bmi education     total_activity
    ##    <dbl> <fct>  <dbl> <dbl> <ord>                  <dbl>
    ##  1 62161 Male      22  23.3 HS equivalent         13194.
    ##  2 62164 Female    44  23.2 More than HS          13411.
    ##  3 62169 Male      21  20.1 HS equivalent          9991.
    ##  4 62174 Male      80  33.9 More than HS           8579.
    ##  5 62177 Male      51  20.1 HS equivalent         11918.
    ##  6 62178 Male      80  28.5 HS equivalent          7489.
    ##  7 62180 Male      35  27.9 More than HS          14205.
    ##  8 62184 Male      26  22.1 HS equivalent         13599.
    ##  9 62189 Female    30  22.4 More than HS          18551.
    ## 10 62199 Male      57  28   More than HS          14548.
    ## # ℹ 218 more rows
…
